%YAML 1.1
%TAG !u! tag:unity3d.com,2011:
--- !u!114 &11400000
MonoBehaviour:
  m_ObjectHideFlags: 0
  m_CorrespondingSourceObject: {fileID: 0}
  m_PrefabInstance: {fileID: 0}
  m_PrefabAsset: {fileID: 0}
  m_GameObject: {fileID: 0}
  m_Enabled: 1
  m_EditorHideFlags: 0
  m_Script: {fileID: 11500000, guid: 6ff2bd921c4a5414eb0a6bcbd1d5d208, type: 3}
  m_Name: Shoes
  m_EditorClassIdentifier: 
  name: DefShoes
  icon: {fileID: 0}
  isDefaultItem: 1
  equipSlot: 5
  mesh: {fileID: 3519213839291278823, guid: 21944c5e4b690cd47add2794ef089139, type: 3}
  armorModifier: 0
  damageModifier: 0
