%YAML 1.1
%TAG !u! tag:unity3d.com,2011:
--- !u!114 &11400000
MonoBehaviour:
  m_ObjectHideFlags: 0
  m_CorrespondingSourceObject: {fileID: 0}
  m_PrefabInstance: {fileID: 0}
  m_PrefabAsset: {fileID: 0}
  m_GameObject: {fileID: 0}
  m_Enabled: 1
  m_EditorHideFlags: 0
  m_Script: {fileID: 11500000, guid: 7a6d4b1555f1b374e84fe78f81f478d8, type: 3}
  m_Name: CapaTriste
  m_EditorClassIdentifier: 
  name: Capa triste
  icon: {fileID: 21300000, guid: 239c35a2cacfe06409dc08513964862d, type: 3}
  isDefaultItem: 0
